…
The typical workflow follows these steps:

``` R
peg_catalogue()   →   peg_info()   →   peg_metadata()   →   peg_query()   →   peg_all()
(find datasets)       (explore)        (find fields)        (filter)          (download all)
```

### `peg_catalogue()` — find available datasets

List all datasets on the Winnipeg Open Data Portal with their IDs,
categories, and last updated dates:

``` r
peg_catalogue()
#> # A tibble: 200 × 7
#>    name           id    description category updated_at          row_count url  
#>    <chr>          <chr> <chr>       <chr>    <dttm>                  <int> <chr>
#>  1 WFPS Call Logs yg42… "The data … Fire an… 2026-03-08 16:31:12      1349 http…
#>  2 Plow Zone Sch… tix9… "Scheduled… City Pl… 2026-03-08 16:25:50       630 http…
#>  3 311 Call Wait… vrzk… "Caller wa… Contact… 2026-03-08 16:25:29       701 http…
#>  4 Council Votin… f9mn… "On Septem… Council… 2026-03-08 16:14:49       347 http…
#>  5 River Water L… tgrf… "Record of… Water a… 2026-03-08 16:01:44       731 http…
#>  6 Accessibility… fxq5… "This data… Streets  2026-03-08 16:00:58        67 http…
#>  7 FIPPA Request… pfbi… "The Freed… Organiz… 2026-03-08 11:41:58       484 http…
#>  8 WPA Paystation b85e… "Onstreet … Parking  2026-03-08 10:03:40       385 http…
#>  9 Walkways       jdeq… "This data… City Pl… 2026-03-08 10:03:29       326 http…
#> 10 Daily Adult M… du7c… "The data … Insect … 2026-03-08 10:00:15      1445 http…
#> # ℹ 190 more rows
```

Filter by category or search by name to find a dataset ID:

``` r
library(dplyr)

# count datasets by category
peg_catalogue() |>
  count(category, sort = TRUE)
#> # A tibble: 26 × 2
#>    category                                                   n
#>    <chr>                                                  <int>
#>  1 Census                                                    29
#>  2 City Planning                                             25
#>  3 Development Approvals, Building Permits, & Inspections    23
#>  4 Transportation Planning & Traffic Management              18
#>  5 Uncategorized                                             14
#>  6 Council Services                                          13
#>  7 Organizational Support Services                            8
#>  8 Assessment, Taxation, & Corporate                          7
#>  9 Contact Centre - 311                                       7
#> 10 Water and Waste                                            7
#> # ℹ 16 more rows
…
### `peg_metadata()` — column names and types

Look up field names and types before querying. Always use `field_name`
values in
[`peg_query()`](https://myominnoo.github.io/wpgdata/reference/peg_query.md):

``` r
peg_metadata("d4mq-wa44")
#> # A tibble: 71 × 4
#>    name               field_name         type   description
#>    <chr>              <chr>              <chr>  <chr>      
#>  1 Roll Number        roll_number        text   <NA>       
#>  2 Street Number      street_number      number <NA>       
#>  3 Unit Number        unit_number        text   <NA>       
#>  4 Street Suffix      street_suffix      text   <NA>       
#>  5 Street Direction   street_direction   text   <NA>       
#>  6 Street Name        street_name        text   <NA>       
#>  7 Street Type        street_type        text   <NA>       
#>  8 Full Address       full_address       text   <NA>       
#>  9 Neighbourhood Area neighbourhood_area text   <NA>       
#> 10 Market Region      market_region      text   <NA>       
#> # ℹ 61 more rows
```

### `peg_get()` — fetch the first page

Fetch the first page of a dataset. Warns if more rows are available:

``` r
suppressWarnings(peg_get("d4mq-wa44"))
#> # A tibble: 1,000 × 72
#>    `__id`   roll_number street_number unit_number street_suffix street_direction
#>    <chr>    <chr>               <int> <chr>       <lgl>         <lgl>           
#>  1 row-iai… 01000001000          1636 <NA>        NA            NA              
#>  2 row-u7e… 01000005500          1584 <NA>        NA            NA              
#>  3 row-rxq… 01000008000          1574 <NA>        NA            NA              
#>  4 row-7nj… 01000008200          1550 <NA>        NA            NA              
#>  5 row-pte… 01000008400          1538 <NA>        NA            NA              
#>  6 row-ehq… 01000008500          1536 <NA>        NA            NA              
#>  7 row-iyr… 01000013200          1520 <NA>        NA            NA              
#>  8 row-78v… 01000013300          1510 <NA>        NA            NA              
#>  9 row-cv3… 01000013600          1500 <NA>        NA            NA              
#> 10 row-trz… 01000013700          1490 <NA>        NA            NA              
#> # ℹ 990 more rows
#> # ℹ 66 more variables: street_name <chr>, street_type <chr>,
#> #   full_address <chr>, neighbourhood_area <chr>, market_region <chr>,
#> #   total_living_area <int>, building_type <chr>, basement <chr>,
#> #   basement_finish <chr>, year_built <int>, rooms <int>,
#> #   air_conditioning <chr>, fire_place <chr>, attached_garage <chr>,
#> #   detached_garage <chr>, pool <chr>, number_floors_condo <int>, …
```
…
### `peg_all()` — fetch all rows with pagination

Retrieve all rows across multiple pages with a progress bar:

``` r
peg_all("d4mq-wa44", max_pages = 3)
#> Warning: ! Stopped after 3 pages.
#> ℹ Rows retrieved : 41000 of 245130
#> ℹ Use `max_pages = Inf` to fetch all.
#> # A tibble: 41,000 × 72
#>    `__id`   roll_number street_number unit_number street_suffix street_direction
#>    <chr>    <chr>               <int> <chr>       <chr>         <chr>           
#>  1 row-iai… 01000001000          1636 <NA>        <NA>          <NA>            
#>  2 row-u7e… 01000005500          1584 <NA>        <NA>          <NA>            
#>  3 row-rxq… 01000008000          1574 <NA>        <NA>          <NA>            
#>  4 row-7nj… 01000008200          1550 <NA>        <NA>          <NA>            
#>  5 row-pte… 01000008400          1538 <NA>        <NA>          <NA>            
#>  6 row-ehq… 01000008500          1536 <NA>        <NA>          <NA>            
#>  7 row-iyr… 01000013200          1520 <NA>        <NA>          <NA>            
#>  8 row-78v… 01000013300          1510 <NA>        <NA>          <NA>            
#>  9 row-cv3… 01000013600          1500 <NA>        <NA>          <NA>            
#> 10 row-trz… 01000013700          1490 <NA>        <NA>          <NA>            
#> # ℹ 40,990 more rows
#> # ℹ 66 more variables: street_name <chr>, street_type <chr>,
#> #   full_address <chr>, neighbourhood_area <chr>, market_region <chr>,
#> #   total_living_area <int>, building_type <chr>, basement <chr>,
#> #   basement_finish <chr>, year_built <int>, rooms <int>,
#> #   air_conditioning <chr>, fire_place <chr>, attached_garage <chr>,
#> #   detached_garage <chr>, pool <chr>, number_floors_condo <int>, …
```
…
