wpgdata • wpgdata
…
peg_info("d4mq-wa44")
#> # A tibble: 1 × 11
#>   name        description category created_at rows_updated_at view_last_modified
#>   <chr>       <chr>       <chr>    <date>     <date>          <date>            
#> 1 Assessment… List of al… Assessm… 2017-08-23 2026-03-07      2026-03-07        
#> # ℹ 5 more variables: view_count <int>, download_count <int>, tags <list>,
#> #   license <chr>, provenance <chr>

peg_metadata() — column names and types

Look up field names and types before querying:

peg_metadata("d4mq-wa44")
#> # A tibble: 71 × 4
#>    name               field_name         type   description
#>    <chr>              <chr>              <chr>  <chr>      
#>  1 Roll Number        roll_number        text   <NA>       
#>  2 Street Number      street_number      number <NA>       
#>  3 Unit Number        unit_number        text   <NA>       
#>  4 Street Suffix      street_suffix      text   <NA>       
#>  5 Street Direction   street_direction   text   <NA>       
#>  6 Street Name        street_name        text   <NA>       
#>  7 Street Type        street_type        text   <NA>       
#>  8 Full Address       full_address       text   <NA>       
#>  9 Neighbourhood Area neighbourhood_area text   <NA>       
#> 10 Market Region      market_region      text   <NA>       
#> # ℹ 61 more rows

peg_get() — fetch the first page

Fetch the first page of a dataset (up to 1000 rows):

peg_get("d4mq-wa44")
#> Warning: ! Not all rows returned. The dataset is paginated.
#> ℹ Rows retrieved: 1000
#> ℹ Use `peg_all()` to retrieve all rows.
#> # A tibble: 1,000 × 72
#>    `__id`   roll_number street_number unit_number street_suffix street_direction
#>    <chr>    <chr>               <int> <chr>       <lgl>         <lgl>           
#>  1 row-yah… 01000001000          1636 <NA>        NA            NA              
#>  2 row-tuj… 01000005500          1584 <NA>        NA            NA              
#>  3 row-7y8… 01000008000          1574 <NA>        NA            NA              
#>  4 row-vzs… 01000008200          1550 <NA>        NA            NA              
#>  5 row-pq8… 01000008400          1538 <NA>        NA            NA              
#>  6 row-6dw… 01000008500          1536 <NA>        NA            NA              
#>  7 row-ayw… 01000013200          1520 <NA>        NA            NA              
#>  8 row-ji6… 01000013300          1510 <NA>        NA            NA              
#>  9 row-y6a… 01000013600          1500 <NA>        NA            NA              
#> 10 row-82n… 01000013700          1490 <NA>        NA            NA              
#> # ℹ 990 more rows
#> # ℹ 66 more variables: street_name <chr>, street_type <chr>,
#> #   full_address <chr>, neighbourhood_area <chr>, market_region <chr>,
#> #   total_living_area <int>, building_type <chr>, basement <chr>,
#> #   basement_finish <chr>, year_built <int>, rooms <int>,
#> #   air_conditioning <chr>, fire_place <chr>, attached_garage <chr>,
#> #   detached_garage <chr>, pool <chr>, number_floors_condo <int>, …
…
peg_all() — fetch all rows with pagination

Retrieve all rows across multiple pages:

# fetch up to 3 pages (safety cap)
peg_all("d4mq-wa44", max_pages = 3)
#> Warning: ! Stopped after 3 pages.
#> ℹ Rows retrieved : 41000 of 245130
#> ℹ Use `max_pages = Inf` to fetch all.
#> # A tibble: 41,000 × 72
#>    `__id`   roll_number street_number unit_number street_suffix street_direction
#>    <chr>    <chr>               <int> <chr>       <chr>         <chr>           
#>  1 row-yah… 01000001000          1636 <NA>        <NA>          <NA>            
#>  2 row-tuj… 01000005500          1584 <NA>        <NA>          <NA>            
#>  3 row-7y8… 01000008000          1574 <NA>        <NA>          <NA>            
#>  4 row-vzs… 01000008200          1550 <NA>        <NA>          <NA>            
#>  5 row-pq8… 01000008400          1538 <NA>        <NA>          <NA>            
#>  6 row-6dw… 01000008500          1536 <NA>        <NA>          <NA>            
#>  7 row-ayw… 01000013200          1520 <NA>        <NA>          <NA>            
#>  8 row-ji6… 01000013300          1510 <NA>        <NA>          <NA>            
#>  9 row-y6a… 01000013600          1500 <NA>        <NA>          <NA>            
#> 10 row-82n… 01000013700          1490 <NA>        <NA>          <NA>            
#> # ℹ 40,990 more rows
#> # ℹ 66 more variables: street_name <chr>, street_type <chr>,
#> #   full_address <chr>, neighbourhood_area <chr>, market_region <chr>,
#> #   total_living_area <int>, building_type <chr>, basement <chr>,
#> #   basement_finish <chr>, year_built <int>, rooms <int>,
#> #   air_conditioning <chr>, fire_place <chr>, attached_garage <chr>,
#> #   detached_garage <chr>, pool <chr>, number_floors_condo <int>, …
…
