…
------------------------------------------------------------------------

## Step 2 — Find field names with `peg_metadata()`

OData queries require exact field names. Use
[`peg_metadata()`](https://myominnoo.github.io/wpgdata/reference/peg_metadata.md)
to look up the available fields and their types before writing any
query:

``` r
meta <- peg_metadata("d4mq-wa44")
meta
#> # A tibble: 71 × 4
#>    name               field_name         type   description
#>    <chr>              <chr>              <chr>  <chr>      
#>  1 Roll Number        roll_number        text   NA         
#>  2 Street Number      street_number      number NA         
#>  3 Unit Number        unit_number        text   NA         
#>  4 Street Suffix      street_suffix      text   NA         
#>  5 Street Direction   street_direction   text   NA         
#>  6 Street Name        street_name        text   NA         
#>  7 Street Type        street_type        text   NA         
#>  8 Full Address       full_address       text   NA         
#>  9 Neighbourhood Area neighbourhood_area text   NA         
#> 10 Market Region      market_region      text   NA         
#> # ℹ 61 more rows
```

The `field_name` column contains the names to use in
[`peg_query()`](https://myominnoo.github.io/wpgdata/reference/peg_query.md).
The `type` column tells you whether a field is text, number, or another
type — important for writing correct filter expressions.

For example, to find numeric fields only:

``` r
meta |>
  dplyr::filter(type == "number")
#> # A tibble: 24 × 4
#>    name                            field_name                  type  description
#>    <chr>                           <chr>                       <chr> <chr>      
#>  1 Street Number                   street_number               numb… NA         
#>  2 Total Living Area               total_living_area           numb… In Square …
#>  3 Year Built                      year_built                  numb… NA         
#>  4 Rooms                           rooms                       numb… NA         
#>  5 Number Floors (Condo)           number_floors_condo         numb… NA         
#>  6 Assessed Land Area              assessed_land_area          numb… In Square …
#>  7 Water Frontage Measurement      water_frontage_measurement  numb… in Feet    
#>  8 Sewer Frontage Measurement      sewer_frontage_measurement  numb… In Feet    
#>  9 Total Assessed Value            total_assessed_value        numb… NA         
#> 10 Total Proposed Assessment Value total_proposed_assessment_… numb… NA         
#> # ℹ 14 more rows
```

------------------------------------------------------------------------

## Step 3 — Fetch a quick preview with `peg_get()`

[`peg_get()`](https://myominnoo.github.io/wpgdata/reference/peg_get.md)
fetches the first page of a dataset (up to the server’s default page
size). It is useful for a quick look at the data structure before
writing more targeted queries:

``` r
df <- suppressWarnings(peg_get("d4mq-wa44"))
df
#> # A tibble: 1,000 × 72
#>    `__id`   roll_number street_number unit_number street_suffix street_direction
#>    <chr>    <chr>               <int> <chr>       <lgl>         <lgl>           
#>  1 row-yah… 01000001000          1636 NA          NA            NA              
#>  2 row-tuj… 01000005500          1584 NA          NA            NA              
#>  3 row-7y8… 01000008000          1574 NA          NA            NA              
#>  4 row-vzs… 01000008200          1550 NA          NA            NA              
#>  5 row-pq8… 01000008400          1538 NA          NA            NA              
#>  6 row-6dw… 01000008500          1536 NA          NA            NA              
#>  7 row-ayw… 01000013200          1520 NA          NA            NA              
#>  8 row-ji6… 01000013300          1510 NA          NA            NA              
#>  9 row-y6a… 01000013600          1500 NA          NA            NA              
#> 10 row-82n… 01000013700          1490 NA          NA            NA              
#> # ℹ 990 more rows
#> # ℹ 66 more variables: street_name <chr>, street_type <chr>,
#> #   full_address <chr>, neighbourhood_area <chr>, market_region <chr>,
#> #   total_living_area <int>, building_type <chr>, basement <chr>,
#> #   basement_finish <chr>, year_built <int>, rooms <int>,
#> #   air_conditioning <chr>, fire_place <chr>, attached_garage <chr>,
#> #   detached_garage <chr>, pool <chr>, number_floors_condo <int>, …
```
…
------------------------------------------------------------------------

## Step 5 — Download all rows with `peg_all()`

[`peg_all()`](https://myominnoo.github.io/wpgdata/reference/peg_all.md)
automatically paginates through all pages and returns a single tibble.
It shows a progress bar with row counts and percentage:

``` r
# fetch up to 3 pages (safety cap)
peg_all("d4mq-wa44", max_pages = 3)
#> # A tibble: 41,000 × 72
#>    `__id`   roll_number street_number unit_number street_suffix street_direction
#>    <chr>    <chr>               <int> <chr>       <chr>         <chr>           
#>  1 row-yah… 01000001000          1636 NA          NA            NA              
#>  2 row-tuj… 01000005500          1584 NA          NA            NA              
#>  3 row-7y8… 01000008000          1574 NA          NA            NA              
#>  4 row-vzs… 01000008200          1550 NA          NA            NA              
#>  5 row-pq8… 01000008400          1538 NA          NA            NA              
#>  6 row-6dw… 01000008500          1536 NA          NA            NA              
#>  7 row-ayw… 01000013200          1520 NA          NA            NA              
#>  8 row-ji6… 01000013300          1510 NA          NA            NA              
#>  9 row-y6a… 01000013600          1500 NA          NA            NA              
#> 10 row-82n… 01000013700          1490 NA          NA            NA              
#> # ℹ 40,990 more rows
#> # ℹ 66 more variables: street_name <chr>, street_type <chr>,
#> #   full_address <chr>, neighbourhood_area <chr>, market_region <chr>,
#> #   total_living_area <int>, building_type <chr>, basement <chr>,
#> #   basement_finish <chr>, year_built <int>, rooms <int>,
#> #   air_conditioning <chr>, fire_place <chr>, attached_garage <chr>,
#> #   detached_garage <chr>, pool <chr>, number_floors_condo <int>, …
```
…
