…
------------------------------------------------------------------------

## Step 1 — Find datasets with `peg_catalogue()`

[`peg_catalogue()`](https://myominnoo.github.io/wpgdata/reference/peg_catalogue.md)
retrieves every published dataset from the portal. Both catalogue pages
and per-dataset metadata are fetched in parallel, so the full catalogue
arrives quickly regardless of size.

``` r
catalogue <- peg_catalogue()
catalogue
#> # A tibble: 216 × 22
#>    id        name     description category license_id created_at rows_updated_at
#>    <chr>     <chr>    <chr>       <chr>    <chr>      <date>     <date>         
#>  1 d4mq-wa44 Assessm… "List of a… Assessm… OGL_CANADA 2017-08-23 2026-03-10     
#>  2 yg42-q284 WFPS Ca… "The data … Fire an… OGL_CANADA 2020-12-14 2026-03-10     
#>  3 iibp-28fx Burial … "Locations… Cemeter… OGL_CANADA 2016-01-29 2026-03-10     
#>  4 vrzk-mj7v 311 Cal… "Caller wa… Contact… OGL_CANADA 2022-06-17 2026-03-10     
#>  5 gnxp-9hpt Public … "Public No… Develop… NA         2016-08-08 2026-03-10     
#>  6 tix9-r5tc Plow Zo… "Scheduled… City Pl… NA         2016-10-18 2026-03-10     
#>  7 du7c-8488 Daily A… "The data … Insect … NA         2016-05-04 2026-03-10     
#>  8 pfbi-rm6v FIPPA R… "The Freed… Organiz… OGL_CANADA 2019-09-10 2026-03-10     
#>  9 tgrf-v2zc River W… "Record of… Water a… OGL_CANADA 2018-03-15 2026-03-10     
#> 10 qe3f-4r3j Active … "The City … Neighbo… OGL_CANADA 2023-06-30 2026-03-10     
#> # ℹ 206 more rows
#> # ℹ 15 more variables: view_last_modified <date>, publication_date <date>,
#> #   index_updated_at <date>, row_count <int>, col_count <int>,
#> #   download_count <int>, view_count <int>, group <chr>, department <chr>,
#> #   update_frequency <chr>, quality_rank <chr>, license <chr>,
#> #   license_link <chr>, tags <list>, url <chr>
```

Count datasets by category to get an overview of what’s available:

``` r
catalogue |>
  count(category, sort = TRUE)
#> # A tibble: 26 × 2
#>    category                                                   n
#>    <chr>                                                  <int>
#>  1 Census                                                    35
#>  2 City Planning                                             27
#>  3 Development Approvals, Building Permits, & Inspections    23
#>  4 Transportation Planning & Traffic Management              18
#>  5 Uncategorized                                             16
#>  6 Council Services                                          15
#>  7 Recreation                                                 9
#>  8 Organizational Support Services                            8
#>  9 Assessment, Taxation, & Corporate                          7
#> 10 Contact Centre - 311                                       7
#> # ℹ 16 more rows
```
…
------------------------------------------------------------------------

## Step 3 — Find field names with `peg_metadata()`

OData queries require exact field names. Use
[`peg_metadata()`](https://myominnoo.github.io/wpgdata/reference/peg_metadata.md)
to look up available fields and their types before writing any query:

``` r
meta <- peg_metadata("d4mq-wa44")
meta
#> # A tibble: 71 × 4
#>    name               field_name         type   description
#>    <chr>              <chr>              <chr>  <chr>      
#>  1 Roll Number        roll_number        text   NA         
#>  2 Street Number      street_number      number NA         
#>  3 Unit Number        unit_number        text   NA         
#>  4 Street Suffix      street_suffix      text   NA         
#>  5 Street Direction   street_direction   text   NA         
#>  6 Street Name        street_name        text   NA         
#>  7 Street Type        street_type        text   NA         
#>  8 Full Address       full_address       text   NA         
#>  9 Neighbourhood Area neighbourhood_area text   NA         
#> 10 Market Region      market_region      text   NA         
#> # ℹ 61 more rows
```

The `field_name` column contains the names to use in
[`peg_data()`](https://myominnoo.github.io/wpgdata/reference/peg_data.md).
The `type` column tells you whether a field is text, number, floating
timestamp, or another type — important for writing correct filter
expressions.

Find numeric fields only:

``` r
meta |>
  filter(type == "number")
#> # A tibble: 24 × 4
#>    name                            field_name                  type  description
#>    <chr>                           <chr>                       <chr> <chr>      
#>  1 Street Number                   street_number               numb… NA         
#>  2 Total Living Area               total_living_area           numb… In Square …
#>  3 Year Built                      year_built                  numb… NA         
#>  4 Rooms                           rooms                       numb… NA         
#>  5 Number Floors (Condo)           number_floors_condo         numb… NA         
#>  6 Assessed Land Area              assessed_land_area          numb… In Square …
#>  7 Water Frontage Measurement      water_frontage_measurement  numb… in Feet    
#>  8 Sewer Frontage Measurement      sewer_frontage_measurement  numb… In Feet    
#>  9 Total Assessed Value            total_assessed_value        numb… NA         
#> 10 Total Proposed Assessment Value total_proposed_assessment_… numb… NA         
#> # ℹ 14 more rows
```
…
### Records closed in the last 4 days

``` r
filter_str <- paste0("closed_date ge '", ts(Sys.Date() - 4), "'")

peg_data(
  "u7f6-5326",
  filter = filter_str,
  select = c("case_id", "channel_type", "subject", "reason",
             "type", "open_date", "closed_date", "case_status",
             "neighbourhood", "ward"),
  top    = 100L
)
#> # A tibble: 100 × 10
#>    case_id   channel_type subject reason type  open_date closed_date case_status
#>    <chr>     <chr>        <chr>   <chr>  <chr> <chr>     <chr>       <chr>      
#>  1 925ba982… Voice In     Servic… Publi… Pave… 2018-04-… 2026-03-06… Closed     
#>  2 d81f9c30… VOF          Servic… Publi… Graf… 2023-12-… 2026-03-06… Closed     
#>  3 5b52f3b4… VOF          Servic… Publi… Graf… 2023-12-… 2026-03-06… Closed     
#>  4 71c5dea2… VOF          Servic… Publi… Graf… 2023-12-… 2026-03-06… Closed     
#>  5 c48b7cd1… Dept Create… Servic… Publi… Graf… 2023-12-… 2026-03-06… Closed     
#>  6 b68d46fc… VOF          Servic… Publi… Graf… 2024-01-… 2026-03-06… Closed     
#>  7 9c5748e5… e-mail In    Servic… Publi… Graf… 2024-01-… 2026-03-06… Closed     
#>  8 b3e723ff… e-mail In    Servic… Publi… Graf… 2024-02-… 2026-03-06… Closed     
#>  9 15271674… e-mail In    Servic… Publi… Graf… 2024-03-… 2026-03-06… Closed     
#> 10 d19dadf0… VOF          Servic… Publi… Graf… 2024-03-… 2026-03-06… Closed     
#> # ℹ 90 more rows
#> # ℹ 2 more variables: neighbourhood <chr>, ward <chr>
```
…
``` r
filter_str <- paste0(
  "closed_date ge '", ts(as.Date("2026-03-01")), "'",
  " and ",
  "closed_date lt '", ts(as.Date("2026-03-07")), "'"
)

peg_data(
  "u7f6-5326",
  filter = filter_str,
  select = c("case_id", "subject", "open_date", "closed_date", "case_status"),
  top    = 100L
)
#> # A tibble: 100 × 5
#>    case_id                             subject open_date closed_date case_status
#>    <chr>                               <chr>   <chr>     <chr>       <chr>      
#>  1 925ba9824f63b6e105eb00dc8f069b56e4… Servic… 2018-04-… 2026-03-06… Closed     
#>  2 ef9eb1f31d08f9c23314e28c86c4cdc66a… Servic… 2023-02-… 2026-03-04… Closed     
#>  3 e17ba4e93b31b085f5f102113833ecc3b8… Servic… 2023-06-… 2026-03-05… Closed     
#>  4 e17ba4e93b31b085f5f102113833ecc3b8… Servic… 2023-06-… 2026-03-05… Closed     
#>  5 c54dfa99aa65b99836b03401b63f7576f8… Servic… 2023-08-… 2026-03-04… Closed     
#>  6 b6bd446227ce1aef7480f1aec1e60d97cc… Servic… 2023-09-… 2026-03-04… Closed     
#>  7 d81f9c3026c55e7b9fd049c13cb825f03f… Servic… 2023-12-… 2026-03-06… Closed     
#>  8 5b52f3b44ddc0fdaffe18f93c7529579b9… Servic… 2023-12-… 2026-03-06… Closed     
#>  9 71c5dea21dbeba15537e1b26084bc6b908… Servic… 2023-12-… 2026-03-06… Closed     
#> 10 c48b7cd13abf00d7de74c92cf918efc15b… Servic… 2023-12-… 2026-03-06… Closed     
#> # ℹ 90 more rows
```
…
``` r
filter_str <- paste0(
  "open_date ge '", ts(Sys.Date() - 7), "'",
  " and ",
  "case_status eq 'Open'"
)

peg_data(
  "u7f6-5326",
  filter  = filter_str,
  select  = c("case_id", "subject", "reason", "open_date",
              "case_status", "neighbourhood", "ward"),
  top     = 100L
)
#> # A tibble: 100 × 7
#>    case_id              subject reason open_date case_status neighbourhood ward 
#>    <chr>                <chr>   <chr>  <chr>     <chr>       <chr>         <chr>
#>  1 651af1c08e9e943d4c6… Servic… Water… 2026-03-… Open        Garden City   Old …
#>  2 0b8f964f48a39e42332… Servic… Water… 2026-03-… Open        NA            NA   
#>  3 ffa4c42ea341c4b0a82… Servic… Water… 2026-03-… Open        West Alexand… Poin…
#>  4 cdc7299136ca05917c7… Servic… Publi… 2026-03-… Open        Assiniboia D… Char…
#>  5 738c5f21c1420e128ee… Servic… Publi… 2026-03-… Open        NA            NA   
#>  6 16c8bd44b69b98665cc… Servic… Water… 2026-03-… Open        NA            NA   
#>  7 87d4bb9f18e575fc7a6… Servic… Water… 2026-03-… Open        NA            NA   
#>  8 71a97c142fecf839d6f… Servic… Publi… 2026-03-… Open        NA            NA   
#>  9 bb1a3cc58a09a7a1044… Servic… Publi… 2026-03-… Open        Wellington C… Rive…
#> 10 fd3917710d58a0fe5e5… Servic… Publi… 2026-03-… Open        Weston        Poin…
#> # ℹ 90 more rows
```
…
